event_name,new_event_name,group,action,,,
au_about_you_select_upload,-Not req-,retail,click,,"'au_about_you_select_upload',","'-Not req-',"
landing_10,-Not req-,retail,view,,"'landing_10',",
customize_signup_options_onbc,-Not req-,retail,system,,"'customize_signup_options_onbc',",
au_about_you_select_transfer,-Not req-,retail,click,,"'au_about_you_select_transfer',",
au_about_you_select_telehealth,-Not req-,retail,click,,"'au_about_you_select_telehealth',",
au_about_you_select_vitamins,-Not req-,retail,click,,"'au_about_you_select_vitamins',",
au_transfer_nearby_shown,-Not req-,retail,system,,"'au_transfer_nearby_shown',",
au_about_you_select_otherpharmacy,-Not req-,retail,click,,"'au_about_you_select_otherpharmacy',",
au_transfer_nearby_selected,-Not req-,retail,click,,"'au_transfer_nearby_selected',",
carousel3,-Not req-,retail,view,,"'carousel3',",
carousel2,-Not req-,retail,view,,"'carousel2',",
carousel4,-Not req-,retail,view,,"'carousel4',",
au_transfer_all_medication_entered,-Not req-,retail,key_in,,"'au_transfer_all_medication_entered',",
customize_signup_options,-Not req-,retail,system,,"'customize_signup_options',",
au_custom_signup_skip_popup,-Not req-,retail,click,,"'au_custom_signup_skip_popup',",
au_couponCode_entered,-Not req-,retail,key_in,,"'au_couponCode_entered',",
au_congratulations,-Not req-,retail,view,,"'au_congratulations',",
transfer_nearby_shown,-Not req-,retail,system,,"'transfer_nearby_shown',",
transfer_nearby_selected,-Not req-,retail,click,,"'transfer_nearby_selected',",
new_user_health,,dashboard,click,,"'new_user_health',",
au_transfer_manual_popup_shown,,signup,view,,"'au_transfer_manual_popup_shown',",
new_user_final,,retail,click,,"'new_user_final',",
Download,,retail,click,,"'Download',",
click_copy_insurance,insurance_copy_click,dashboard,click,,"'click_copy_insurance',",
au_employer_skip,,employer,skip,,"'au_employer_skip',",
otp_details,,retail,click,,"'otp_details',",
new_user_payment,,retail,click,,"'new_user_payment',",
otp_url,,retail,click,,"'otp_url',",
click_signup,,retail,click,,"'click_signup',",
payment_done,,retail,click,,"'payment_done',",
pp_production,,retail,system,,"'pp_production',",
upload_final,,retail,view,,"'upload_final',",
click_start_view_login,,retail,click,,"'click_start_view_login',",
click_sign_up,,retail,click,,"'click_sign_up',",
au_allowdoctor_entered,consultation_allow_prescription_transfer,signup,click,,"'au_allowdoctor_entered',",
click_start_view_signup,,retail,click,,"'click_start_view_signup',",
nextroll-consent,,retail,click,,"'nextroll-consent',",
new_user_address,,retail,click,,"'new_user_address',",
nextroll-ready,,retail,click,,"'nextroll-ready',",
transfer_manual_popup_shown,,retail,view,,"'transfer_manual_popup_shown',",
new_user_insurance,,retail,click,,"'new_user_insurance',",
transfer_final,,retail,click,,"'transfer_final',",
open_signup,,retail,click,,"'open_signup',",
click_signup_login_view,login_page_new_signup,retail,click,,"'click_signup_login_view',",
vitamins_final,,retail,view,,"'vitamins_final',",
landing_call_medications,,retail,click,,"'landing_call_medications',",
add_membertransfer,transfer_refills,addmember,view,,"'add_membertransfer',",
signup,signup_completed,retail,system,,"'signup',",
click_review_cart_address_back,vitamins_cart_address_back,dashboard,click,,"'click_review_cart_address_back',",
click_call_cancel_subscription,cancel_subscription_request_call,dashboard,click,,"'click_call_cancel_subscription',",
transfer_page_new,transfer_refills,signup,view,,"'transfer_page_new',",
about_us_view,about_us,dashboard,view,,"'about_us_view',",
au_about_you,about_you,signup,view,,"'au_about_you',",
add_memberabout-you,about_you,addmember,view,,"'add_memberabout-you',",
am_about_you,about_you,addmember,view,,"'am_about_you',",
au_about_you_back,about_you_back,signup,click,,"'au_about_you_back',",
au_about_you_verification_failed,about_you_failed,signup,system,,"'au_about_you_verification_failed',",
au_about_submit,about_you_submit,signup,click,,"'au_about_submit',",
au_about_you_verification,about_you_success,signup,system,,"'au_about_you_verification',",
abtest,abtest,retail,system,,"'abtest',",
au_activate_patient,activate_patient_button,dashboard,click,,"'au_activate_patient',",
click_add_an_address,add_address_button,retail,click,,"'click_add_an_address',",
click_add_a_card,add_card_button,dashboard,click,,"'click_add_a_card',",
add_memberadd,add_member_button,addmember,click,,"'add_memberadd',",
am_add,add_member,addmember,view,,"'am_add',",
dashboard_add_member,add_member_card,dashboard,click,,"'dashboard_add_member',",
add_membersuccess,addmember_success,addmember,view,,"'add_membersuccess',",
am_success,addmember_success,addmember,view,,"'am_success',",
address_entered,address_entered,dashboard,key_in,,"'address_entered',",
address_list_view,address_list,dashboard,view,,"'address_list_view',",
address_selected,address_option,dashboard,select,,"'address_selected',",
address_results_shown,address_street_result_shown,dashboard,view,,"'address_results_shown',",
au_almost_done,almost_done,signup,view,,"'au_almost_done',",
am_almost_done,almost_done,addmember,view,,"'am_almost_done',",
au_almost_done_back,almost_done_back,signup,click,,"'au_almost_done_back',",
au_health_submit,almost_done_submit,signup,click,,"'au_health_submit',",
am_almostdone_submit,almost_done_submit,addmember,click,,"'am_almostdone_submit',",
am_almost_done_submit,almost_done_submit,addmember,click,,"'am_almost_done_submit',",
click_app_review_yes,app_review_yes,dashboard,click,,"'click_app_review_yes',",
appointment_details_open,appointment_details,dashboard,view,,"'appointment_details_open',",
dashboard_appointment_detail,appointment_details_card,dashboard,click,,"'dashboard_appointment_detail',",
telehealth_book_appointment,book_appointment,telehealth,click,,"'telehealth_book_appointment',",
landing_book_appointment,book_appointment,retail,click,,"'landing_book_appointment',",
browser_back_press,browser_back_press,retail,click,,"'browser_back_press',",
Call,call_button,dashboard,click,,"'Call',",
landing_call_top,call_button,retail,click,,"'landing_call_top',",
click_call_chat,call_chat_initiate,dashboard,click,,"'click_call_chat',",
call_confirm,call_confirm,retail,view,,"'call_confirm',",
call_click,call_initiate,dashboard,click,,"'call_click',",
click_cancel_subscription,cancel_subscription_request,dashboard,click,,"'click_cancel_subscription',",
consultation_cancel_request,cancel_telehealth_request,dashboard,click,,"'consultation_cancel_request',",
chat_form_submit,chat_form_submit,dashboard,click,,"'chat_form_submit',",
chat_hide,chat_hide,dashboard,click,,"'chat_hide',",
chat_initialize,chat_initialize,dashboard,click,,"'chat_initialize',",
chat_minimize,chat_minimize,dashboard,click,,"'chat_minimize',",
chat_name_form_failed,chat_name_form_failed,dashboard,system,,"'chat_name_form_failed',",
chat_name_form_submit,chat_name_form_submit,dashboard,click,,"'chat_name_form_submit',",
dashboard_open_chat,chat_card_click,dashboard,click,,"'dashboard_open_chat',",
chat_show,chat_show,retail,view,,"'chat_show',",
chat_view,chat,dashboard,view,,"'chat_view',",
guest_checkout_address,checkout_address,guest,view,,"'guest_checkout_address',",
guest_checkout_health,checkout_health,guest,view,,"'guest_checkout_health',",
guest_checkout_healthcard,checkout_healthcard,guest,view,,"'guest_checkout_healthcard',",
guest_checkout_insurance,checkout_insurance,guest,view,,"'guest_checkout_insurance',",
guest_checkout_payment,checkout_payment,guest,view,,"'guest_checkout_payment',",
guest_checkout_final,checkout_success,guest,view,,"'guest_checkout_final',",
au_complete_profile,complete_profile,signup,click,,"'au_complete_profile',",
dashboard_complete_profile,complete_profile_card_click,dashboard,click,,"'dashboard_complete_profile',",
au_complete_profile_failed,complete_profile_failed,signup,system,,"'au_complete_profile_failed',",
click_resend_sms,consent_sms_resend,dashboard,click,,"'click_resend_sms',",
au_consultation,consultation,signup,view,,"'au_consultation',",
consultation,consultation,dashboard,view,,"'consultation',",
au_category_entered,consultation_category_entered,signup,key_in,,"'au_category_entered',",
au_description_entered,consultation_description,signup,key_in,,"'au_description_entered',",
consultation_intermediate_success,consultation_intermediate_success,dashboard,view,,"'consultation_intermediate_success',",
consultation_intermediate_close,consultation_intermediate_success_close,dashboard,click,,"'consultation_intermediate_close',",
open_consultation_modal,consultation_modal,signup,view,,"'open_consultation_modal',",
au_consultation_modal_closed,consultation_modal_closed,signup,click,,"'au_consultation_modal_closed',",
consultation_modal_continue,consultation_modal_continue,signup,click,,"'consultation_modal_continue',",
consultation_modal_skip,consultation_modal_skip,signup,click,,"'consultation_modal_skip',",
au_reason_entered,consultation_reason_entered,signup,click,,"'au_reason_entered',",
au_consultation_submit,consultation_submit,signup,click,,"'au_consultation_submit',",
consultation_submit,consultation_submit,dashboard,click,,"'consultation_submit',",
au_consultation_verification,consultation_verification,signup,system,,"'au_consultation_verification',",
consultation_verification,consultation_verification,dashboard,click,,"'consultation_verification',",
consultation_verification_failed,consultation_verification_failed,dashboard,view,,"'consultation_verification_failed',",
au_consultation_verification_failed,consultation_verification_failed,signup,system,,"'au_consultation_verification_failed',",
am_contact,contact,addmember,view,,"'am_contact',",
au_contact_detail,contact_details,retail,click,,"'au_contact_detail',",
conversion,conversion,signup,click,,"'conversion',",
cookiesdisabled,cookiesdisabled,retail,other,,"'cookiesdisabled',",
click_copy_address,copy_address,dashboard,click,,"'click_copy_address',",
credit_card_list_view,credit_card_list,dashboard,view,,"'credit_card_list_view',",
click_customer_call,customer_call,dashboard,click,,"'click_customer_call',",
dashboard_customer_care,customer_care_card,dashboard,click,,"'dashboard_customer_care',",
click_customer_care,customer_care_click,dashboard,click,,"'click_customer_care',",
click_customer_care_chat,customer_care_chat,dashboard,click,,"'click_customer_care_chat',",
au_dailyMed_entered,dailymed_consumed,signup,click,,"'au_dailyMed_entered',",
dashboard,dashboard,dashboard,view,,"'dashboard',",
au_dob_date_entered,dob_date_entered,signup,key_in,,"'au_dob_date_entered',",
au_dob_month_entered,dob_month_entered,signup,key_in,,"'au_dob_month_entered',",
au_dob_year_entered,dob_year_entered,signup,key_in,,"'au_dob_year_entered',",
dropoff_popup_close,dropoff_modal_close,signup,click,,"'dropoff_popup_close',",
dropoff_popup_open,dropoff_modal_open,signup,view,,"'dropoff_popup_open',",
dropoff_popup_search,dropoff_modal_search_prices,signup,click,,"'dropoff_popup_search',",
dropoff_popup_skip,dropoff_modal_skip,signup,click,,"'dropoff_popup_skip',",
dropoff_popup_telehealth,dropoff_modal_telehealth,signup,select,,"'dropoff_popup_telehealth',",
au_transfer_telehealth,dropoff_modal_telehealth,signup,select,,"'au_transfer_telehealth',",
au_transfer_telehealth_failed,dropoff_modal_telehealth_fail,signup,system,,"'au_transfer_telehealth_failed',",
dropoff_popup_transfer,dropoff_modal_transfer,signup,view,,"'dropoff_popup_transfer',",
dropoff_popup_upload,dropoff_modal_upload_prescription,signup,click,,"'dropoff_popup_upload',",
dropoff_popup_video,dropoff_modal_video,signup,click,,"'dropoff_popup_video',",
dashboard_edit_address,edit_address,dashboard,click,,"'dashboard_edit_address',",
au_email_entered,email_entered,signup,key_in,,"'au_email_entered',",
au_employer_entered,employer_entered,employer,click,,"'au_employer_entered',",
au_employer_onboard_success,employer_onboard_success,signup,view,,"'au_employer_onboard_success',",
au_employer_list,employer_selection_list,signup,view,,"'au_employer_list',",
au_employer_submit,employer_submit,signup,click,,"'au_employer_submit',",
click_profile_employer_updated,employer_updated,dashboard,click,,"'click_profile_employer_updated',",
fax,fax,retail,view,,"'fax',",
dashboard_fax,fax_card,dashboard,click,,"'dashboard_fax',",
au_firstName_entered,first_name_entered,signup,key_in,,"'au_firstName_entered',",
Follow Us,follow_us,dashboard,click,,"'Follow Us',",
footer_about_us,footer_about_us,retail,click,,"'footer_about_us',",
footer_birth_control,footer_birth_control,retail,click,,"'footer_birth_control',",
footer_blog,footer_blog,retail,click,,"'footer_blog',",
footer_careers,footer_careers,retail,click,,"'footer_careers',",
footer_caregivers,footer_caregivers,retail,click,,"'footer_caregivers',",
footer_for_advisors,footer_for_advisors,retail,click,,"'footer_for_advisors',",
footer_for_doctors,footer_for_doctors,retail,click,,"'footer_for_doctors',",
footer_get_prescriptions online,footer_get_prescriptions online,retail,click,,"'footer_get_prescriptions online',",
footer_how_it works,footer_how_it works,retail,click,,"'footer_how_it works',",
footer_med_disposal,footer_med_disposal,retail,click,,"'footer_med_disposal',",
footer_our_services,footer_our_services,retail,click,,"'footer_our_services',",
footer_search_prices,footer_search_prices,retail,click,,"'footer_search_prices',",
click_forget_password,forget_password,retail,click,,"'click_forget_password',",
au_gender_entered,gender_entered,signup,key_in,,"'au_gender_entered',",
General Information,general_information,retail,view,,"'General Information',",
click_get_call,get_call,dashboard,click,,"'click_get_call',",
au_get_started,get_started,retail,view,,"'au_get_started',",
landing_get_started_button,get_started_button,retail,click,,"'landing_get_started_button',",
telehealth_get_started_button,get_started_button,telehealth,click,,"'telehealth_get_started_button',",
landing_transfer_now,get_started_transfernow,retail,click,,"'landing_transfer_now',",
telehealth_transfer_now,get_started_transfernow,telehealth,click,,"'telehealth_transfer_now',",
getDeviceToken,getDeviceToken,retail,system,,"'getDeviceToken',",
gtm.dom,gtm.dom,retail,system,,"'gtm.dom',",
gtm.js,gtm.js,retail,system,,"'gtm.js',",
gtm.load,gtm.load,retail,system,,"'gtm.load',",
health_view,health,dashboard,view,,"'health_view',",
click_profile_health_card,healthcard,dashboard,click,,"'click_profile_health_card',",
home_view,home,dashboard,view,,"'home_view',",
inapp_message_clicked,inapp_message,dashboard,click,,"'inapp_message_clicked',",
insurance_view,insurance,dashboard,view,,"'insurance_view',",
click_item_details,item_details,dashboard,click,,"'click_item_details',",
landing_forgot,forgot_click,retail,click,,"'landing_forgot',",
au_landing_form_error,landing_form_error,retail,click,,"'au_landing_form_error',",
landing_login,login,retail,system,,"'landing_login',",
landing_page_employer,landing_page,employer,view,,"'landing_page_employer',",
landing_page_static,landing_page,retail,view,,"'landing_page_static',",
advisor_landing,landing_page,employer,view,,"'advisor_landing',",
landing_page,landing_page,retail,view,,"'landing_page',",
landing_proceed,proceed,retail,click,,"'landing_proceed',",
landing_proceed_sticky,proceed_sticky,retail,click,,"'landing_proceed_sticky',",
landing_signup,signup,retail,system,,"'landing_signup',",
landing_video_2BeZO0RaD6k,landing_video_play,retail,click,,"'landing_video_2BeZO0RaD6k',",
language_change,language_edit,retail,click,,"'language_change',",
au_lastName_entered,last_name_entered,signup,key_in,,"'au_lastName_entered',",
Login,login_click,retail,click,,"'Login',",
login,login_click,retail,click,,"'login',",
landing_login_button,login_button_click,retail,click,,"'landing_login_button',",
failed_login,login_failed,retail,system,,"'failed_login',",
click_login,login_proceed,retail,click,,"'click_login',",
success_login,login_success,retail,system,,"'success_login',",
failed_login_validation,login_validation_failed,retail,system,,"'failed_login_validation',",
login_view,login_page,retail,view,,"'login_view',",
logout,logout,dashboard,click,,"'logout',",
click_logout,logout,dashboard,click,,"'click_logout',",
maxmind_location,maxmind_location,retail,system,,"'maxmind_location',",
maxmind_location_error,maxmind_location_error,retail,system,,"'maxmind_location_error',",
au_medicationlist_entered,medicationlist_entered,signup,key_in,,"'au_medicationlist_entered',",
medications,medications,dashboard,view,,"'medications',",
dashboard_medications,medications_card,dashboard,click,,"'dashboard_medications',",
member_list,member_list,dashboard,view,,"'member_list',",
add_membercellPhone,member_phone_entered,addmember,key_in,,"'add_membercellPhone',",
member_select,member_switch,dashboard,click,,"'member_select',",
au_memberid_entered,memberid_entered,employer,key_in,,"'au_memberid_entered',",
landing_menu,menu,retail,click,,"'landing_menu',",
landing_menu_blog,menu_blogs,retail,click,,"'landing_menu_blog',",
landing_menu_caregivers,menu_caregivers,retail,click,,"'landing_menu_caregivers',",
landing_menu_faq,menu_faq,retail,click,,"'landing_menu_faq',",
landing_menu_howitworks,menu_howitworks,retail,click,,"'landing_menu_howitworks',",
landing_menu_login,menu_login,retail,click,,"'landing_menu_login',",
landing_menu_search,menu_search_prices,retail,click,,"'landing_menu_search',",
landing_menu_services,menu_services,retail,click,,"'landing_menu_services',",
telehealth_menu_signup,menu_signup,retail,click,,"'telehealth_menu_signup',",
landing_menu_signup,menu_signup,retail,click,,"'landing_menu_signup',",
click_modify_subscription,modify_subscription,dashboard,click,,"'click_modify_subscription',",
au_newpassword_entered,newpassword_entered,signup,key_in,,"'au_newpassword_entered',",
notification_received,notification_received,retail,view,,"'notification_received',",
show_ontario_discount_text,on_discount_text_shown,signup,view,,"'show_ontario_discount_text',",
province_discount_65_visible,on_odb_discount_shown,signup,view,,"'province_discount_65_visible',",
province_discount_25_visible,on_ohip_discount_shown,signup,view,,"'province_discount_25_visible',",
order_checkout_address,onboard_address,signup,view,,"'order_checkout_address',",
order_checkout_final,onboard_complete,signup,view,,"'order_checkout_final',",
order_checkout_health,onboard_health,signup,view,,"'order_checkout_health',",
order_checkout_healthcard,onboard_healthcard,signup,view,,"'order_checkout_healthcard',",
order_checkout_insurance,onboard_insurance,signup,view,,"'order_checkout_insurance',",
order_checkout_payment,onboard_payment,signup,view,,"'order_checkout_payment',",
au_open_search,open_search,signup,click,,"'au_open_search',",
open_search,open_search,dashboard,view,,"'open_search',",
dashboard_open_video,open_video_card,dashboard,click,,"'dashboard_open_video',",
optimize.callback,optimize.callback,retail,system,,"'optimize.callback',",
dashboard_order_address,order_address_card,dashboard,click,,"'dashboard_order_address',",
copay_checkout_final,order_checkout_copay,signup,click,,"'copay_checkout_final',",
dashboard_order_detail,order_details_card,dashboard,click,,"'dashboard_order_detail',",
dashboard_order_insurance,order_insurance_card,dashboard,click,,"'dashboard_order_insurance',",
dashboard_order_list,order_list,dashboard,click,,"'dashboard_order_list',",
dashboard_order_payment,order_payment,dashboard,click,,"'dashboard_order_payment',",
orders_detail,orders_detail,dashboard,view,,"'orders_detail',",
orders_view,orders,dashboard,view,,"'orders_view',",
au_otp_entered,otp_entered,signup,key_in,,"'au_otp_entered',",
au_otp_verification_failed,otp_verification_failed_modal,signup,view,,"'au_otp_verification_failed',",
au_packpermission_entered,packpermission_entered,signup,click,,"'au_packpermission_entered',",
Page Loaded,page_loaded,retail,view,,"'Page Loaded',",
Page Loaded App,page_loaded_app,retail,view,,"'Page Loaded App',",
password_entered,password_entered,retail,key_in,,"'password_entered',",
au_activate_patient_success,patient_activate_success,signup,system,,"'au_activate_patient_success',",
personal_details_view,personal_details,dashboard,view,,"'personal_details_view',",
au_transfer_address_entered,pharmacy_address,signup,key_in,,"'au_transfer_address_entered',",
au_transfer_phone_entered,pharmacy_phone,signup,key_in,,"'au_transfer_phone_entered',",
click_transfer_remove_pharmacy,pharmacy_remove,signup,click,,"'click_transfer_remove_pharmacy',",
edit_phone_click,phone_edit,signup,click,,"'edit_phone_click',",
phone_entered,phone_entered,retail,key_in,,"'phone_entered',",
phone_number_updated,phone_number_updated,signup,key_in,,"'phone_number_updated',",
click_pill_taken,pill_taken,dashboard,click,,"'click_pill_taken',",
Play,play,retail,click,,"'Play',",
click_prescription_cancel,prescription_cancel_request,dashboard,click,,"'click_prescription_cancel',",
dashboard_prescription_detail,prescription_detail,dashboard,click,,"'dashboard_prescription_detail',",
prescription_detail,prescription_detail,dashboard,view,,"'prescription_detail',",
prescription_filed,prescription_filed,retail,click,,"'prescription_filed',",
upload_transfer_image,prescription_upload_image,signup,click,,"'upload_transfer_image',",
prescriptions_detail,prescriptions_detail,dashboard,view,,"'prescriptions_detail',",
prescriptions_view,prescriptions,dashboard,view,,"'prescriptions_view',",
click_profile_updated,profile_update,dashboard,click,,"'click_profile_updated',",
profile_view,profile,dashboard,view,,"'profile_view',",
au_province_entered,province_entered,signup,key_in,,"'au_province_entered',",
province_notfound,province_notfound,retail,click,,"'province_notfound',",
au_provincelist_entered,provincelist_option,signup,select,,"'au_provincelist_entered',",
dashboard_rate_us,rate_us,dashboard,click,,"'dashboard_rate_us',",
click_rate_us_not_now,rate_us_not_now,dashboard,click,,"'click_rate_us_not_now',",
click_rate_us_yes,rate_us_yes,dashboard,click,,"'click_rate_us_yes',",
redirection,redirection,retail,view,,"'redirection',",
dashboard_referral,referral_card,dashboard,click,,"'dashboard_referral',",
referral_code_applied_success,referral_code_applied_success,signup,system,,"'referral_code_applied_success',",
click_referral_code_copy,referral_code_copy,dashboard,click,,"'click_referral_code_copy',",
click_referral_code_share,referral_code_share,dashboard,click,,"'click_referral_code_share',",
click_referral_sync_contact,referral_contact_sync,retail,click,,"'click_referral_sync_contact',",
click_referral_know_more,referral_know_more,dashboard,click,,"'click_referral_know_more',",
click_referral_mail,referral_mail,dashboard,click,,"'click_referral_mail',",
click_referral_refer,referral_refer,dashboard,click,,"'click_referral_refer',",
click_referral_whatsapp,referral_whatsapp,dashboard,click,,"'click_referral_whatsapp',",
au_referralCode_entered,referralcode_entered,signup,key_in,,"'au_referralCode_entered',",
refill_address,refill_address,dashboard,view,,"'refill_address',",
dashboard_refill,refill_card,dashboard,click,,"'dashboard_refill',",
refill_health,refill_health,dashboard,view,,"'refill_health',",
refill_insurance,refill_insurance,dashboard,view,,"'refill_insurance',",
refill,refill_order,dashboard,view,,"'refill',",
refill_payment,refill_payment,dashboard,view,,"'refill_payment',",
refill_final,refill_success,dashboard,view,,"'refill_final',",
au_relationship_entered,relationship_entered,addmember,click,,"'au_relationship_entered',",
click_reset_password,reset_password,retail,click,,"'click_reset_password',",
click_review_address,review_address,dashboard,click,,"'click_review_address',",
click_referral_facebook,review_on_facebook,dashboard,click,,"'click_referral_facebook',",
au_transfer_search_name_entered,au_transfer_search_entered,retail,key_in,,"'au_transfer_search_name_entered',",
au_transfer_name_entered,au_transfer_search_entered,signup,key_in,,"'au_transfer_name_entered',",
search_calculation,search_calculation,retail,view,,"'search_calculation',",
au_search_calculation,search_calculation,signup,select,,"'au_search_calculation',",
hide_search,search_hide,retail,click,,"'hide_search',",
au_hide_search,search_hide,retail,click,,"'au_hide_search',",
au_search_input,search_input,signup,key_in,,"'au_search_input',",
search_input,search_input,dashboard,key_in,,"'search_input',",
au_transfer_search_select,search_pharmacy_select,signup,select,,"'au_transfer_search_select',",
transfer_search_select,search_pharmacy_select,dashboard,select,,"'transfer_search_select',",
transfer_new_api_results,search_pharmacy_api_new_results,retail,system,,"'transfer_new_api_results',",
transfer_old_api_results,search_pharmacy_api_old_results,retail,system,,"'transfer_old_api_results',",
au_transfer_search_entered,search_pharmacy_entered,signup,key_in,,"'au_transfer_search_entered',",
au_transfer_search,search_pharmacy_focus,signup,view,,"'au_transfer_search',",
transfer_search,search_pharmacy_initiate,dashboard,key_in,,"'transfer_search',",
transfer_search_popular_select,search_pharmacy_popular,signup,select,,"'transfer_search_popular_select',",
searchprices_appointment,search_prices_appointment,retail,click,,"'searchprices_appointment',",
search_breakup_click,search_prices_breakup,dashboard,click,,"'search_breakup_click',",
au_search_show_breakup,search_prices_breakup,signup,click,,"'au_search_show_breakup',",
search_show_breakup,search_prices_breakup,dashboard,click,,"'search_show_breakup',",
dashboard_medication_search,search_prices_card,dashboard,click,,"'dashboard_medication_search',",
search_selected,search_prices_result_select,dashboard,click,,"'search_selected',",
au_search_selected,search_prices_result_select,signup,select,,"'au_search_selected',",
search_transfer_click,search_prices_transfer,dashboard,click,,"'search_transfer_click',",
search_upload_click,search_prices_upload_prescription,dashboard,click,,"'search_upload_click',",
search_result_view,search_result,dashboard,view,,"'search_result_view',",
landing_search_transfer,search_transfer,retail,click,,"'landing_search_transfer',",
www_search_view,search,retail,view,,"'www_search_view',",
search_view,search,retail,view,,"'search_view',",
click_show_daily_medication,show_daily_medication,dashboard,click,,"'click_show_daily_medication',",
au_almost_done_success,sign_up_done,signup,view,,"'au_almost_done_success',",
am_congratulations,sign_up_done,addmember,view,,"'am_congratulations',",
sign_up_failed,sign_up_failed,retail,system,,"'sign_up_failed',",
signup_success,signup_success,signup,view,,"'signup_success',",
signup_complete_profile_clicked,signup_success_complete_profile,signup,click,,"'signup_complete_profile_clicked',",
au_landing_sticky_submit,sticky_get_started_submit,retail,click,,"'au_landing_sticky_submit',",
au_verify_phone_sticky,sticky_phone_enter,retail,view,,"'au_verify_phone_sticky',",
au_landing_form_submit,submit_phone_number,signup,click,,"'au_landing_form_submit',",
landing_1,telehealth_(name1),retail,click,,"'landing_1',",
landing_2,telehealth_(name2),retail,click,,"'landing_2',",
landing_3,telehealth_(name3),retail,click,,"'landing_3',",
landing_4,telehealth_(name4),retail,click,,"'landing_4',",
landing_5,telehealth_(name5),retail,click,,"'landing_5',",
landing_6,telehealth_(name6),retail,click,,"'landing_6',",
landing_7,telehealth_(name7),retail,click,,"'landing_7',",
landing_8,telehealth_(name8),retail,click,,"'landing_8',",
landing_9,telehealth_(name9),retail,click,,"'landing_9',",
dashboard_telehealth,telehealth_card,dashboard,click,,"'dashboard_telehealth',",
au_transfer_telehealth_success,telehealth_proceed_success,signup,system,,"'au_transfer_telehealth_success',",
consultation_signup_success,telehealth_signup_success,signup,view,,"'consultation_signup_success',",
consultation_signup_complete_profile_clicked,telehealth_success_complete_profile,signup,click,,"'consultation_signup_complete_profile_clicked',",
au_symptoms_entered,telehealth_symptoms_entered,signup,key_in,,"'au_symptoms_entered',",
au_healthcard,telehealth_upload_healthcard,signup,view,,"'au_healthcard',",
transfer_address,transfer_address,dashboard,view,,"'transfer_address',",
transfer_old_api,transfer_api_old,retail,system,,"'transfer_old_api',",
au_transfer_comment_entered,transfer_comment,signup,key_in,,"'au_transfer_comment_entered',",
transfer_health,transfer_health,dashboard,view,,"'transfer_health',",
transfer_insurance,transfer_insurance,dashboard,view,,"'transfer_insurance',",
refill_intermediate,transfer_intermediate_success,retail,click,,"'refill_intermediate',",
au_transfer_manual_popup_completed,transfer_manual_modal_complete,signup,click,,"'au_transfer_manual_popup_completed',",
transfer_manual_popup_completed,transfer_manual_modal_complete,dashboard,click,,"'transfer_manual_popup_completed',",
transfer_new_api,transfer_new_api,(dynamic),system,,"'transfer_new_api',",
transfer_payment,transfer_payment,dashboard,view,,"'transfer_payment',",
am_transfer_refills,transfer_refills,addmember,view,,"'am_transfer_refills',",
transfer_refills,transfer_refills,dashboard,click,,"'transfer_refills',",
au_transfer_refills,transfer_refills,signup,view,,"'au_transfer_refills',",
transfer,transfer_refills,dashboard,view,,"'transfer',",
dashboard_transfer,transfer_refills_card,dashboard,click,,"'dashboard_transfer',",
account_transfer_skipped,transfer_refills_skip,signup,click,,"'account_transfer_skipped',",
au_transfer_refills_skipped,transfer_refills_skipped,signup,click,,"'au_transfer_refills_skipped',",
au_transfer_proceed,transfer_refills_submit,signup,click,,"'au_transfer_proceed',",
au_transfer_refills_formfilled,transfer_refills_submit,signup,click,,"'au_transfer_refills_formfilled',",
am_transfer_refills_formfilled,transfer_refills_submit,addmember,click,,"'am_transfer_refills_formfilled',",
click_update_application,update_application,retail,click,,"'click_update_application',",
upload_address,upload_address,dashboard,view,,"'upload_address',",
upload_health,upload_health,dashboard,view,,"'upload_health',",
upload_insurance,upload_insurance,dashboard,view,,"'upload_insurance',",
upload_payment,upload_payment,dashboard,view,,"'upload_payment',",
upload,upload_prescription,dashboard,view,,"'upload',",
upload_prescription,upload_prescription,dashboard,view,,"'upload_prescription',",
au_upload,upload_prescription,signup,view,,"'au_upload',",
au_upload_prescription,upload_prescription,signup,view,,"'au_upload_prescription',",
dashboard_upload_prescription,upload_prescription_card,dashboard,click,,"'dashboard_upload_prescription',",
au_upload_prescription_skipped,upload_prescription_skipped,signup,click,,"'au_upload_prescription_skipped',",
profile_user_contact_day_change,user_contact_day_edit,dashboard,select,,"'profile_user_contact_day_change',",
user_contact_day_change,user_contact_day_edit,dashboard,click,,"'user_contact_day_change',",
au_user_contact_done,user_contact_done,signup,click,,"'au_user_contact_done',",
profile_user_contact_time_change,user_contact_time_edit,signup,select,,"'profile_user_contact_time_change',",
user_contact_time_change,user_contact_time_edit,dashboard,click,,"'user_contact_time_change',",
au_user_contact_view,user_contact,dashboard,view,,"'au_user_contact_view',",
au_otp_verification,verification,signup,view,,"'au_otp_verification',",
open_verification_view,verification,signup,view,,"'open_verification_view',",
au_verification,verification,signup,view,,"'au_verification',",
verification_call_click,verification_call,signup,click,,"'verification_call_click',",
au_almost_done_verification_failed,verification_failed,signup,system,,"'au_almost_done_verification_failed',",
verification_resend_click,verification_resend,signup,click,,"'verification_resend_click',",
verification_resend_modal_open,verification_resend_modal,signup,view,,"'verification_resend_modal_open',",
au_almost_done_verification,verification_success,signup,system,,"'au_almost_done_verification',",
verify_phone_entered,verify_phone_entered,retail,key_in,,"'verify_phone_entered',",
au_verify_phone_10_entered,verify_phone_entered_10_digits,retail,key_in,,"'au_verify_phone_10_entered',",
landing_video_appexperience,video_appexperience,employer,click,,"'landing_video_appexperience',",
landing_video_JyIeDivW1Jo,video_play,retail,click,,"'landing_video_JyIeDivW1Jo',",
vitamins,vitamins,dashboard,view,,"'vitamins',",
click_add_vitamin_category,vitamins_add_category,dashboard,click,,"'click_add_vitamin_category',",
click_add_to_cart,vitamins_add_to_cart,dashboard,click,,"'click_add_to_cart',",
vitamins_address,vitamins_address,dashboard,view,,"'vitamins_address',",
click_review_cart_address,vitamins_cart_address,dashboard,click,,"'click_review_cart_address',",
click_review_address_back,vitamins_cart_address_back,dashboard,click,,"'click_review_address_back',",
click_review_cart_apply_coupon,vitamins_cart_apply_coupon,dashboard,click,,"'click_review_cart_apply_coupon',",
dashboard_vitamins_cart,vitamins_cart_card,dashboard,click,,"'dashboard_vitamins_cart',",
click_review_cart_edit_dosage,vitamins_cart_dosage_edit,dashboard,click,,"'click_review_cart_edit_dosage',",
click_review_cart_payment_back,vitamins_cart_payment_back,dashboard,click,,"'click_review_cart_payment_back',",
click_review_cart_payment,vitamins_cart_payment_review,retail,click,,"'click_review_cart_payment',",
click_review_cart_remove_coupon,vitamins_cart_remove_coupon,dashboard,click,,"'click_review_cart_remove_coupon',",
click_review_cart_complete,vitamins_cart_review,dashboard,click,,"'click_review_cart_complete',",
click_review_cart_review,vitamins_cart_review,dashboard,click,,"'click_review_cart_review',",
click_review_cart_review_back,vitamins_cart_review_back,retail,click,,"'click_review_cart_review_back',",
click_vitamins_catalog_back,vitamins_catalog_back,dashboard,click,,"'click_vitamins_catalog_back',",
click_vitamins_catalog_bottom_back,vitamins_catalog_back,dashboard,click,,"'click_vitamins_catalog_bottom_back',",
click_back_vitamins_category,vitamins_category_back,dashboard,click,,"'click_back_vitamins_category',",
vitamins_time,vitamins_dosage_timing,dashboard,view,,"'vitamins_time',",
click_vitamins_with_expert_call,vitamins_expert_call,dashboard,click,,"'click_vitamins_with_expert_call',",
click_vitamins_with_expert_chat,vitamins_expert_chat,dashboard,click,,"'click_vitamins_with_expert_chat',",
click_vitamins_with_expert,vitamins_expert_select,dashboard,click,,"'click_vitamins_with_expert',",
vitamins_health,vitamins_health,dashboard,view,,"'vitamins_health',",
vitamins_insurance,vitamins_insurance,dashboard,view,,"'vitamins_insurance',",
vitamins_intermediate,vitamins_intermediate_success,dashboard,view,,"'vitamins_intermediate',",
dashboard_vitamins_landing,vitamins_landing,dashboard,view,,"'dashboard_vitamins_landing',",
click_vitamins_skip,vitamins_landing_skip,signup,click,,"'click_vitamins_skip',",
click_vitamins_manage_subscription,vitamins_manage_subscription,dashboard,click,,"'click_vitamins_manage_subscription',",
click_vitamins_own_pack,vitamins_own_pack_select,dashboard,click,,"'click_vitamins_own_pack',",
click_vitamins_pack,vitamins_pack,dashboard,click,,"'click_vitamins_pack',",
vitamins_payment,vitamins_payment,dashboard,view,,"'vitamins_payment',",
click_remove_vitamin_category,vitamins_remove_category,dashboard,click,,"'click_remove_vitamin_category',",
click_remove_from_cart,vitamins_remove_from_cart,dashboard,click,,"'click_remove_from_cart',",
click_show_all_vitamins,vitamins_show_all,dashboard,click,,"'click_show_all_vitamins',",
click_show_filter_vitamins,vitamins_show_filter,dashboard,click,,"'click_show_filter_vitamins',",
click_zero_copay,zero_copay,signup,click,,"'click_zero_copay',",
click_zero_copay_cancel,zero_copay_cancel,signup,click,,"'click_zero_copay_cancel',",
zerocopay-clicked,zero_copay_clicked,signup,click,,"'zerocopay-clicked',",
click_zero_copay_continue,zero_copay_continue,signup,click,,"'click_zero_copay_continue',",
zerocopay-success,zerocopay_success,retail,system,,"'zerocopay-success',",
zipcode_entered,zipcode_entered,dashboard,key_in,,"'zipcode_entered',",
zoom,zoom,retail,zoom,,"'zoom',",