{
  "images" : [
    {
      "filename" : "iPhone Settings iOS 7 - 14 – 29pt@2x.png",
      "idiom" : "iphone",
      "scale" : "2x",
      "size" : "20x20"
    },
    {
      "filename" : "iPhone Settings iOS 7 - 14 – 29pt@3x.png",
      "idiom" : "iphone",
      "scale" : "3x",
      "size" : "20x20"
    },
    {
      "filename" : "iPhone Settings iOS 7 - 14 – 29pt.png",
      "idiom" : "iphone",
      "scale" : "1x",
      "size" : "29x29"
    },
    {
      "filename" : "iPhone Settings iOS 7 - 14 – 29pt@2x-1.png",
      "idiom" : "iphone",
      "scale" : "2x",
      "size" : "29x29"
    },
    {
      "filename" : "iPhone Settings iOS 7 - 14 – 29pt@3x-1.png",
      "idiom" : "iphone",
      "scale" : "3x",
      "size" : "29x29"
    },
    {
      "filename" : "iPhone Spotlight iOS 7 - 14 – 40pt@2x.png",
      "idiom" : "iphone",
      "scale" : "2x",
      "size" : "40x40"
    },
    {
      "filename" : "iPhone Spotlight iOS 7 - 14 – 40pt@3x.png",
      "idiom" : "iphone",
      "scale" : "3x",
      "size" : "40x40"
    },
    {
      "filename" : "iPhone App iOS 5,6 – 57pt.png",
      "idiom" : "iphone",
      "scale" : "1x",
      "size" : "57x57"
    },
    {
      "filename" : "iPhone App iOS 5,6 – 57pt@2x.png",
      "idiom" : "iphone",
      "scale" : "2x",
      "size" : "57x57"
    },
    {
      "filename" : "iPhone App iOS 7-14 – 60pt@2x.png",
      "idiom" : "iphone",
      "scale" : "2x",
      "size" : "60x60"
    },
    {
      "filename" : "iPhone App iOS 7-14 – 60pt@3x.png",
      "idiom" : "iphone",
      "scale" : "3x",
      "size" : "60x60"
    },
    {
      "filename" : "iPad Notification iOS 7 - 14 – 20pt.png",
      "idiom" : "ipad",
      "scale" : "1x",
      "size" : "20x20"
    },
    {
      "filename" : "iPad Notification iOS 7 - 14 – 20pt@2x.png",
      "idiom" : "ipad",
      "scale" : "2x",
      "size" : "20x20"
    },
    {
      "filename" : "iPad Settings iOS 7 - 14 – 29pt.png",
      "idiom" : "ipad",
      "scale" : "1x",
      "size" : "29x29"
    },
    {
      "filename" : "iPad Settings iOS 7 - 14 – 29pt@2x.png",
      "idiom" : "ipad",
      "scale" : "2x",
      "size" : "29x29"
    },
    {
      "filename" : "iPad Spotlight iOS 7 - 14 – 40pt.png",
      "idiom" : "ipad",
      "scale" : "1x",
      "size" : "40x40"
    },
    {
      "filename" : "iPad Spotlight iOS 7 - 14 – 40pt@2x.png",
      "idiom" : "ipad",
      "scale" : "2x",
      "size" : "40x40"
    },
    {
      "filename" : "iPad Spotlight iOS 5, 6 – 50pt.png",
      "idiom" : "ipad",
      "scale" : "1x",
      "size" : "50x50"
    },
    {
      "filename" : "iPad Spotlight iOS 5, 6 – 50pt@2x.png",
      "idiom" : "ipad",
      "scale" : "2x",
      "size" : "50x50"
    },
    {
      "filename" : "iPad App iOS 5, 6 – 72pt.png",
      "idiom" : "ipad",
      "scale" : "1x",
      "size" : "72x72"
    },
    {
      "filename" : "iPad App iOS 5, 6 – 72pt@2x.png",
      "idiom" : "ipad",
      "scale" : "2x",
      "size" : "72x72"
    },
    {
      "filename" : "iPad App iOS 7-14 – 76pt.png",
      "idiom" : "ipad",
      "scale" : "1x",
      "size" : "76x76"
    },
    {
      "filename" : "iPad App iOS 7-14 – 76pt@2x.png",
      "idiom" : "ipad",
      "scale" : "2x",
      "size" : "76x76"
    },
    {
      "filename" : "iPad Pro (12.9-inch) App iOS 9-14 – 83.5pt@2x.png",
      "idiom" : "ipad",
      "scale" : "2x",
      "size" : "83.5x83.5"
    },
    {
      "filename" : "App Store iOS - 1024pt.png",
      "idiom" : "ios-marketing",
      "scale" : "1x",
      "size" : "1024x1024"
    }
  ],
  "info" : {
    "author" : "xcode",
    "version" : 1
  }
}
